EESchema Schematic File Version 4
EELAYER 29 0
EELAYER END
$Descr A4 11693 8268
encoding utf-8
Sheet 1 1
Title ""
Date ""
Rev ""
Comp ""
Comment1 ""
Comment2 ""
Comment3 ""
Comment4 ""
$EndDescr
$Comp
L Device:R_POT_Dual RV1
U 1 1 5D075C48
P 3900 3000
F 0 "RV1" V 3800 3200 50  0000 R CNN
F 1 "50k" V 3900 3200 50  0000 R CNN
F 2 "Potentiometer_THT:Potentiometer_Alps_RK097_Dual_Horizontal" H 4150 2925 50  0001 C CNN
F 3 "~" H 4150 2925 50  0001 C CNN
	1    3900 3000
	0    1    1    0   
$EndComp
$Comp
L Connector:Conn_01x03_Male J1
U 1 1 5D076649
P 2000 2150
F 0 "J1" H 2108 2431 50  0000 C CNN
F 1 "INPUT" H 2108 2340 50  0000 C CNN
F 2 "Connector_Molex:Molex_KK-254_AE-6410-03A_1x03_P2.54mm_Vertical" H 2000 2150 50  0001 C CNN
F 3 "~" H 2000 2150 50  0001 C CNN
	1    2000 2150
	1    0    0    -1  
$EndComp
Wire Wire Line
	2200 2050 3800 2050
Wire Wire Line
	3800 2050 3800 2600
Wire Wire Line
	3800 3100 3350 3100
Wire Wire Line
	3350 3100 3350 2250
Wire Wire Line
	3350 2250 2200 2250
$Comp
L power:GND #PWR0101
U 1 1 5D0772D4
P 2400 2350
F 0 "#PWR0101" H 2400 2100 50  0001 C CNN
F 1 "GND" H 2405 2177 50  0000 C CNN
F 2 "" H 2400 2350 50  0001 C CNN
F 3 "" H 2400 2350 50  0001 C CNN
	1    2400 2350
	1    0    0    -1  
$EndComp
Wire Wire Line
	2400 2350 2400 2150
Wire Wire Line
	2400 2150 2200 2150
Wire Wire Line
	3800 3400 3800 3550
Wire Wire Line
	3550 3000 3800 3000
Wire Wire Line
	3800 3000 3800 2900
Wire Wire Line
	3550 3650 3550 3550
$Comp
L power:GND #PWR0102
U 1 1 5D077520
P 3550 3650
F 0 "#PWR0102" H 3550 3400 50  0001 C CNN
F 1 "GND" H 3555 3477 50  0000 C CNN
F 2 "" H 3550 3650 50  0001 C CNN
F 3 "" H 3550 3650 50  0001 C CNN
	1    3550 3650
	1    0    0    -1  
$EndComp
Wire Wire Line
	3800 3550 3550 3550
Connection ~ 3550 3550
Wire Wire Line
	3550 3550 3550 3000
$Comp
L Connector:Conn_01x02_Male J3
U 1 1 5D078A82
P 4650 2850
F 0 "J3" H 4622 2732 50  0000 R CNN
F 1 "OUT_L" H 4622 2823 50  0000 R CNN
F 2 "Connector_Molex:Molex_KK-254_AE-6410-02A_1x02_P2.54mm_Vertical" H 4650 2850 50  0001 C CNN
F 3 "~" H 4650 2850 50  0001 C CNN
	1    4650 2850
	-1   0    0    1   
$EndComp
Wire Wire Line
	4450 2750 4200 2750
$Comp
L power:GND #PWR0103
U 1 1 5D079843
P 4350 2950
F 0 "#PWR0103" H 4350 2700 50  0001 C CNN
F 1 "GND" H 4355 2777 50  0000 C CNN
F 2 "" H 4350 2950 50  0001 C CNN
F 3 "" H 4350 2950 50  0001 C CNN
	1    4350 2950
	1    0    0    -1  
$EndComp
Wire Wire Line
	4350 2950 4350 2850
Wire Wire Line
	4350 2850 4450 2850
$Comp
L Connector:Conn_01x02_Male J4
U 1 1 5D079CC6
P 4650 3350
F 0 "J4" H 4622 3232 50  0000 R CNN
F 1 "OUT_R" H 4622 3323 50  0000 R CNN
F 2 "Connector_Molex:Molex_KK-254_AE-6410-02A_1x02_P2.54mm_Vertical" H 4650 3350 50  0001 C CNN
F 3 "~" H 4650 3350 50  0001 C CNN
	1    4650 3350
	-1   0    0    1   
$EndComp
Wire Wire Line
	4450 3250 4200 3250
$Comp
L power:GND #PWR0104
U 1 1 5D07A275
P 4350 3500
F 0 "#PWR0104" H 4350 3250 50  0001 C CNN
F 1 "GND" H 4355 3327 50  0000 C CNN
F 2 "" H 4350 3500 50  0001 C CNN
F 3 "" H 4350 3500 50  0001 C CNN
	1    4350 3500
	1    0    0    -1  
$EndComp
Wire Wire Line
	4350 3500 4350 3350
Wire Wire Line
	4350 3350 4450 3350
$Comp
L Connector:Conn_01x02_Male J2
U 1 1 5D07A7B2
P 4650 2400
F 0 "J2" H 4622 2282 50  0000 R CNN
F 1 "OUT_L_VU" H 4622 2373 50  0000 R CNN
F 2 "Connector_Molex:Molex_KK-254_AE-6410-02A_1x02_P2.54mm_Vertical" H 4650 2400 50  0001 C CNN
F 3 "~" H 4650 2400 50  0001 C CNN
	1    4650 2400
	-1   0    0    1   
$EndComp
$Comp
L Connector:Conn_01x02_Male J5
U 1 1 5D07AD8A
P 4650 4000
F 0 "J5" H 4622 3882 50  0000 R CNN
F 1 "OUT_R_VU" H 4622 3973 50  0000 R CNN
F 2 "Connector_Molex:Molex_KK-254_AE-6410-02A_1x02_P2.54mm_Vertical" H 4650 4000 50  0001 C CNN
F 3 "~" H 4650 4000 50  0001 C CNN
	1    4650 4000
	-1   0    0    1   
$EndComp
$Comp
L power:GND #PWR0105
U 1 1 5D07B2AE
P 4350 4100
F 0 "#PWR0105" H 4350 3850 50  0001 C CNN
F 1 "GND" H 4355 3927 50  0000 C CNN
F 2 "" H 4350 4100 50  0001 C CNN
F 3 "" H 4350 4100 50  0001 C CNN
	1    4350 4100
	1    0    0    -1  
$EndComp
Wire Wire Line
	4350 4100 4350 4000
Wire Wire Line
	4350 4000 4450 4000
$Comp
L power:GND #PWR0106
U 1 1 5D07B6F0
P 4350 2500
F 0 "#PWR0106" H 4350 2250 50  0001 C CNN
F 1 "GND" H 4355 2327 50  0000 C CNN
F 2 "" H 4350 2500 50  0001 C CNN
F 3 "" H 4350 2500 50  0001 C CNN
	1    4350 2500
	1    0    0    -1  
$EndComp
Wire Wire Line
	4350 2500 4350 2400
Wire Wire Line
	4350 2400 4450 2400
Wire Wire Line
	4450 2300 4200 2300
Wire Wire Line
	4200 2300 4200 2750
Connection ~ 4200 2750
Wire Wire Line
	4200 2750 4000 2750
Wire Wire Line
	4450 3900 4200 3900
Wire Wire Line
	4200 3900 4200 3250
Connection ~ 4200 3250
Wire Wire Line
	4200 3250 4000 3250
$EndSCHEMATC
